[
    {
        "key": "group_5d0bedce9398f",
        "title": "Portfolio Details",
        "fields": [
            {
                "key": "field_5d0beecd31ed9",
                "label": "Keyword or Keyword Phrase",
                "name": "keyword_phrase",
                "type": "text",
                "instructions": "Enter the keyword or keyword phrase.",
                "required": 0,
                "conditional_logic": 0,
                "wrapper": {
                    "width": "",
                    "class": "",
                    "id": ""
                },
                "default_value": "",
                "placeholder": "",
                "prepend": "",
                "append": "",
                "maxlength": ""
            },
            {
                "key": "field_5d0bee11c5fd5",
                "label": "Keyword Rank",
                "name": "keyword_rank",
                "type": "text",
                "instructions": "Enter the rank of the keyword or keyword phrase.",
                "required": 0,
                "conditional_logic": 0,
                "wrapper": {
                    "width": "",
                    "class": "",
                    "id": ""
                },
                "default_value": "",
                "placeholder": "",
                "prepend": "",
                "append": "",
                "maxlength": ""
            },
            {
                "key": "field_5d0bee43993d1",
                "label": "Client's Web Address",
                "name": "client_web_address",
                "type": "text",
                "instructions": "Enter the web address this keyword or keyword phrase ranks for. This button will only display when the portfolio item is displayed on the home page and the main portfolio page.",
                "required": 0,
                "conditional_logic": 0,
                "wrapper": {
                    "width": "",
                    "class": "",
                    "id": ""
                },
                "default_value": "",
                "placeholder": "",
                "prepend": "",
                "append": "",
                "maxlength": ""
            }
        ],
        "location": [
            [
                {
                    "param": "post_type",
                    "operator": "==",
                    "value": "portfolio"
                }
            ]
        ],
        "menu_order": 0,
        "position": "normal",
        "style": "default",
        "label_placement": "top",
        "instruction_placement": "label",
        "hide_on_screen": "",
        "active": true,
        "description": ""
    }
]