<?xml version="1.0" encoding="UTF-8"?>
<svg xmlns="http://www.w3.org/2000/svg" viewBox="0 0 600 300.95">
    <g id="Design" stroke="none" stroke-width="1" fill="none" fill-rule="evenodd">
        <g class="logo" fill="#FFFFFF">
            <path d="M78,102.85l-48.25-66v66H8.17V1.67H30.32L77.2,65.23V1.67H98.74V102.85Z"/>
            <path d="M147,102.85V61.44L108.15,1.67h24.58l25,40.5,25-40.5h24.42L168.53,61.44v41.41Z"/>
            <path d="M211.77,52.34c0-31.25,23.51-52.34,54-52.34C287.92,0,300.82,12,308,24.73l-18.51,9.1c-4.25-8.19-13.35-14.72-23.67-14.72-18.51,0-31.86,14.11-31.86,33.23s13.35,33.22,31.86,33.22c10.32,0,19.42-6.52,23.67-14.71l18.51,9c-7.13,12.59-20,24.88-42.18,24.88C235.28,104.68,211.77,83.44,211.77,52.34Z"/>
            <path d="M0,274.42l19.51-27.77a73.34,73.34,0,0,0,53.05,22.77c19.76,0,29-8.76,29-18.51,0-29-96.08-8.76-96.08-71.56,0-27.77,24-50.79,63.3-50.79,26.52,0,48.54,8,65.05,23.27l-19.76,26.52c-13.51-12.51-31.53-18.27-48.54-18.27-15,0-23.52,6.51-23.52,16.52,0,26.27,95.83,8.5,95.83,70.8,0,30.53-22,53.55-66.81,53.55C38.78,301,15.76,290.19,0,274.42Z"/>
            <path d="M161.63,297.94V131.06h118.1v31.28H197.16v35H278v31.28H197.16v38h82.57v31.27Z"/>
            <path d="M299.5,214.63c0-50.29,36.77-86.32,87.31-86.32,50.29,0,87.07,36,87.07,86.32S437.1,301,386.81,301C336.27,301,299.5,264.92,299.5,214.63Zm137.85,0c0-31.28-19.76-54.8-50.54-54.8-31,0-50.79,23.52-50.79,54.8,0,31,19.77,54.79,50.79,54.79C417.59,269.42,437.35,245.65,437.35,214.63Z"/>
            <path d="M501.59,193.42V147.09H484.92V136.4H530.4v10.69H513.81v46.33Z"/>
            <path d="M587.77,193.42V152.3L571.7,193.42h-5.3L550.33,152.3v41.12H538.19v-57h17l13.85,35.65L582.9,136.4H600v57Z"/>
        </g>
    </g>
</svg>